individual1-lab3
…
Problem 4

unique(new_happy$Party)

##  [1] "Strong democrat"    "Not str democrat"   "Strong republican" 
##  [4] "Independent"        "Ind,near dem"       "Not str republican"
##  [7] "Ind,near rep"       "No answer"          "Other party"       
## [10] "Don't know"

new_indephappy <- new_happy %>%
  group_by(Marital.status) %>%
  filter(Party == "Independent" | Party == "Ind,near rep" | Party == "Ind,near dem")
new_indephappy

## # A tibble: 6,765 x 15
## # Groups:   Marital.status [6]
##     Year Rent   Happiness  Party  Income People Sex   Major Education Parent.age
##    <dbl> <chr>  <chr>      <chr>  <chr>   <dbl> <chr> <chr>     <dbl>      <dbl>
##  1  1994 Pays ~ Pretty ha~ Indep~ Not a~      1 Fema~ Not ~        12         32
##  2  1994 Pays ~ Pretty ha~ Ind,n~ Not a~      4 Fema~ Not ~        12         20
##  3  1994 Own o~ Very happy Ind,n~ Not a~      3 Fema~ Not ~        16         38
##  4  1994 Not a~ Pretty ha~ Ind,n~ Not a~      1 Fema~ Not ~        12         29
##  5  1994 Not a~ Pretty ha~ Ind,n~ Not a~      2 Male  Not ~        11         24
##  6  1994 Pays ~ Pretty ha~ Ind,n~ Not a~      5 Male  Not ~        10         21
##  7  1994 Not a~ Pretty ha~ Indep~ Not a~      3 Fema~ Not ~        10         19
##  8  1994 Not a~ Pretty ha~ Indep~ Not a~      5 Fema~ Not ~        12         21
##  9  1994 Pays ~ Pretty ha~ Ind,n~ $2500~      4 Male  Not ~        19         32
## 10  1994 Not a~ Pretty ha~ Indep~ Refus~      1 Fema~ Not ~        12         26
## # ... with 6,755 more rows, and 5 more variables: Age <dbl>, Children <dbl>,
## #   Marital.status <chr>, ID <dbl>, Ballot <chr>
…
new_indepunhappy <- new_unhappy %>%
  group_by(Marital.status) %>%
  filter(Party == "Independent" | Party == "Ind,near rep" | Party == "Ind,near dem")
new_indepunhappy

## # A tibble: 1,884 x 15
## # Groups:   Marital.status [5]
##     Year Rent   Happiness  Party  Income People Sex   Major Education Parent.age
##    <dbl> <chr>  <chr>      <chr>  <chr>   <dbl> <chr> <chr>     <dbl>      <dbl>
##  1  1994 Pays ~ Not too h~ Indep~ No an~      3 Fema~ Not ~        12         18
##  2  1994 Own o~ Not too h~ Ind,n~ Not a~      1 Fema~ Not ~        11         32
##  3  1994 Not a~ Not too h~ Ind,n~ $2000~      1 Male  Not ~        16         28
##  4  1994 Pays ~ Not too h~ Ind,n~ $1500~      2 Fema~ Not ~        12         22
##  5  1994 Not a~ Not too h~ Ind,n~ No an~      2 Male  Not ~        14         22
##  6  1994 Not a~ Not too h~ Ind,n~ $2500~      3 Fema~ Not ~        12         19
##  7  1994 Pays ~ Not too h~ Indep~ $2500~      1 Fema~ Not ~        14         19
##  8  1994 Own o~ Not too h~ Indep~ $1000~      5 Male  Not ~        17         26
##  9  1994 Own o~ Not too h~ Ind,n~ $1500~      3 Fema~ Not ~        12         16
## 10  1994 Pays ~ Not too h~ Ind,n~ Not a~      1 Male  Not ~         4         23
## # ... with 1,874 more rows, and 5 more variables: Age <dbl>, Children <dbl>,
## #   Marital.status <chr>, ID <dbl>, Ballot <chr>
…
## # A tibble: 5 x 2
##   Marital.status total_indepunhappy
##   <chr>                       <int>
## 1 Divorced                      430
## 2 Married                       764
## 3 Never married                 356
## 4 Separated                     151
## 5 Widowed                       183

new_rephappy <- new_happy %>%
  group_by(Marital.status) %>%
  filter(Party == "Strong republican" | Party == "Not str republican")
new_indephappy

## # A tibble: 6,765 x 15
## # Groups:   Marital.status [6]
##     Year Rent   Happiness  Party  Income People Sex   Major Education Parent.age
##    <dbl> <chr>  <chr>      <chr>  <chr>   <dbl> <chr> <chr>     <dbl>      <dbl>
##  1  1994 Pays ~ Pretty ha~ Indep~ Not a~      1 Fema~ Not ~        12         32
##  2  1994 Pays ~ Pretty ha~ Ind,n~ Not a~      4 Fema~ Not ~        12         20
##  3  1994 Own o~ Very happy Ind,n~ Not a~      3 Fema~ Not ~        16         38
##  4  1994 Not a~ Pretty ha~ Ind,n~ Not a~      1 Fema~ Not ~        12         29
##  5  1994 Not a~ Pretty ha~ Ind,n~ Not a~      2 Male  Not ~        11         24
##  6  1994 Pays ~ Pretty ha~ Ind,n~ Not a~      5 Male  Not ~        10         21
##  7  1994 Not a~ Pretty ha~ Indep~ Not a~      3 Fema~ Not ~        10         19
##  8  1994 Not a~ Pretty ha~ Indep~ Not a~      5 Fema~ Not ~        12         21
##  9  1994 Pays ~ Pretty ha~ Ind,n~ $2500~      4 Male  Not ~        19         32
## 10  1994 Not a~ Pretty ha~ Indep~ Refus~      1 Fema~ Not ~        12         26
## # ... with 6,755 more rows, and 5 more variables: Age <dbl>, Children <dbl>,
## #   Marital.status <chr>, ID <dbl>, Ballot <chr>
…
## # A tibble: 5 x 2
##   Marital.status total_rephappy
##   <chr>                   <int>
## 1 Divorced                  724
## 2 Married                  3577
## 3 Never married             163
## 4 Separated                 101
## 5 Widowed                   437

new_repunhappy <- new_unhappy %>%
  group_by(Marital.status) %>%
  filter(Party == "Strong republican" | Party == "Not str republican")
new_repunhappy

## # A tibble: 1,112 x 15
## # Groups:   Marital.status [5]
##     Year Rent   Happiness  Party  Income People Sex   Major Education Parent.age
##    <dbl> <chr>  <chr>      <chr>  <chr>   <dbl> <chr> <chr>     <dbl>      <dbl>
##  1  1994 Not a~ Not too h~ Not s~ Not a~      1 Fema~ Not ~         8         21
##  2  1994 Not a~ Not too h~ Not s~ Not a~      5 Fema~ Not ~        12         24
##  3  1994 Own o~ Not too h~ Not s~ $2500~      3 Male  Not ~        20         39
##  4  1994 Own o~ No answer  Stron~ No an~      2 Male  Not ~        16         28
##  5  1994 Own o~ Not too h~ Stron~ $2500~      3 Male  Not ~        16         24
##  6  1994 Not a~ Not too h~ Not s~ Not a~      3 Male  Not ~        11         22
##  7  1994 Not a~ Not too h~ Stron~ Not a~      2 Fema~ Not ~        12         18
##  8  1994 Own o~ Not too h~ Stron~ $2500~      4 Male  Not ~        13         37
##  9  1994 Not a~ Not too h~ Not s~ $8000~      1 Fema~ Not ~         9         16
## 10  1994 Pays ~ Not too h~ Not s~ $3000~      5 Fema~ Not ~        12         17
## # ... with 1,102 more rows, and 5 more variables: Age <dbl>, Children <dbl>,
## #   Marital.status <chr>, ID <dbl>, Ballot <chr>
…
## # A tibble: 5 x 2
##   Marital.status total_repunhappy
##   <chr>                     <int>
## 1 Divorced                    222
## 2 Married                     617
## 3 Never married                61
## 4 Separated                    58
## 5 Widowed                     154

new_demhappy <- new_happy %>%
  group_by(Marital.status) %>%
  filter(Party == "Strong democrat" | Party == "Not str democrat")
new_demhappy

## # A tibble: 5,974 x 15
## # Groups:   Marital.status [6]
##     Year Rent   Happiness  Party  Income People Sex   Major Education Parent.age
##    <dbl> <chr>  <chr>      <chr>  <chr>   <dbl> <chr> <chr>     <dbl>      <dbl>
##  1  1994 Pays ~ Pretty ha~ Stron~ Not a~      6 Fema~ Not ~        12         21
##  2  1994 Pays ~ Very happy Stron~ $1000~      1 Male  Not ~        12         23
##  3  1994 Pays ~ Pretty ha~ Stron~ $1500~      5 Fema~ Not ~        12         17
##  4  1994 Not a~ Pretty ha~ Not s~ $1500~      2 Fema~ Not ~        12         17
##  5  1994 Not a~ Very happy Stron~ $2500~      3 Male  Not ~        16         32
##  6  1994 Own o~ Very happy Not s~ Not a~      4 Fema~ Not ~        16         34
##  7  1994 Pays ~ Pretty ha~ Stron~ $2500~      2 Fema~ Not ~        17         23
##  8  1994 Pays ~ Pretty ha~ Not s~ Not a~      2 Fema~ Not ~        13         20
##  9  1994 Pays ~ Pretty ha~ Not s~ No an~      4 Fema~ Not ~        11         19
## 10  1994 Pays ~ Pretty ha~ Not s~ $1500~      4 Male  Not ~        13         27
## # ... with 5,964 more rows, and 5 more variables: Age <dbl>, Children <dbl>,
## #   Marital.status <chr>, ID <dbl>, Ballot <chr>
…
new_demunhappy <- new_unhappy %>%
  group_by(Marital.status) %>%
  filter(Party == "Strong democrat" | Party == "Not str democrat")
new_demunhappy

## # A tibble: 1,790 x 15
## # Groups:   Marital.status [5]
##     Year Rent   Happiness  Party  Income People Sex   Major Education Parent.age
##    <dbl> <chr>  <chr>      <chr>  <chr>   <dbl> <chr> <chr>     <dbl>      <dbl>
##  1  1994 Own o~ Not too h~ Not s~ $1500~      2 Male  Not ~         8         23
##  2  1994 Pays ~ Not too h~ Stron~ $2000~      4 Fema~ Not ~         9         17
##  3  1994 Not a~ Not too h~ Stron~ $2500~      1 Male  Not ~        20         35
##  4  1994 Pays ~ Not too h~ Not s~ Not a~      4 Fema~ Not ~        16         27
##  5  1994 Pays ~ Not too h~ Stron~ Not a~      1 Male  Not ~        18         25
##  6  1994 Not a~ Not too h~ Stron~ Not a~      1 Fema~ Not ~        12         19
##  7  1994 Own o~ Not too h~ Stron~ Not a~      2 Fema~ Not ~        12         20
##  8  1994 Not a~ Not too h~ Not s~ $2000~      4 Fema~ Not ~         9         20
##  9  1994 Pays ~ Not too h~ Not s~ Not a~      3 Fema~ Not ~        17         23
## 10  1994 Not a~ Not too h~ Not s~ $2500~      2 Fema~ Not ~        12         19
## # ... with 1,780 more rows, and 5 more variables: Age <dbl>, Children <dbl>,
## #   Marital.status <chr>, ID <dbl>, Ballot <chr>
…
